{
	"id": "squad-combat-module-v2",
	"name": "squad-combat-module-v2",
	"title": "Squad Combat Module V2",
	"author": "Konrad Von Scharnhorst",
	"description": "Squad Combat Module V2",
	"version": "1.1.5",
	"packs": [{
		"name": "squad-combat-module-v2",
		"label": "Squad Combat Module V2",
		"type": "Adventure",
		"system": "dnd5e",
		"path": "packs/squad-combat-module-v2.db",
		"entity": "Adventure",
		"module": "squad-combat-module-v2"
	}],
	"authors": [{
		"name": "Konrad Von Scharnhorst"
	}],
	"minimumCoreVersion": "0.8.0",
	"compatibleCoreVersion": "9",
	"compatibility": {
		"minimum": 9,
		"verified": 11
	},
	"url": "",
	"manifest": "https://gitlab.com/PendragonX1/squad-combat-module-v2/-/raw/main/module.json",
	"download": "https://gitlab.com/PendragonX1/squad-combat-module-v2/-/raw/main/squad-combat-module-v2.zip",
	"manifestPlusVersion": "1.2.0"
}